Indices and tables
==================

* :ref:`genindex`
* :ref:`modindex`
* :ref:`search`

_my-reference-label:

Section to cross-reference
--------------------------

This is the text of the section.

It refers to the section itself, see :ref:`my-reference-label`. 